{
  "name": "OSINT. Part 3.",
  "dockerFile": "Dockerfile",
  "runArgs": [
    "--init"
  ],
  "mounts": [
    "source=/var/run/docker.sock,target=/var/run/docker.sock,type=bind"
  ],
  // Set *default* container specific settings.json values on container create.
  "customizations": {
    "vscode": {
      "settings": {
        "workbench.colorTheme": "One Dark Pro",
        "workbench.iconTheme": "vs-minimal",
        "editor.fontSize": 18,
        "editor.formatOnSave": true,
        "diffEditor.wordWrap": "on",
        "editor.wordWrapColumn": 80,
        "editor.fontLigatures": true,
        "files.autoSave": "afterDelay",
        "files.autoSaveDelay": 300,
        "markdown.marp.themes": [
          "themes/lection.css"
        ],
        "markdown.marp.enableHtml": true,
        // PlantUML extension settings
        "[plantuml]": {
          "editor.defaultFormatter": null
        },
        "plantuml.render": "PlantUMLServer",
        "plantuml.server": "https://www.plantuml.com/plantuml/",
        "plantuml.exportFormat": "png",
        "plantuml.diagramsRoot": ".",
        "plantuml.exportOutDir": ".",
        "plantuml.exportSubFolder": false
      },
      "extensions": [
        "zhuangtongfa.Material-theme",
        "dbaeumer.vscode-eslint",
        "isudox.vscode-jetbrains-keybindings",
        "esbenp.prettier-vscode",
        "marp-team.marp-vscode",
        "tomoki1207.pdf",
        "pucelle.run-on-save",
        "jebbs.plantuml",
        "ms-python.python",
        "ms-azuretools.vscode-docker",
        "Phu1237.vs-browser"
      ]
    }
  },
  // Use 'forwardPorts' to make a list of ports inside the container available locally.
  "forwardPorts": [
    80,
    3000,
    5000,
    8000,
    8080,
    9000
  ],
  // Use 'postCreateCommand' to run commands after the container is created.
  // "postCreateCommand": "",
  "containerEnv": {
    "CHOKIDAR_USEPOLLING": "true"
  },
  "remoteUser": "node"
}